Module 1 — Data Cleaning and Exploration Review – What Statistical Model Should I Use?
…
4.6.1 Explication

table() donne les fréquences de chaque catégorie.

length(unique(x)) donne le nombre de catégories.

4.7 Résumés par famille

summary_stats1 <- dfTraits %>%
  group_by(family) %>%
  summarize(avg_length = mean(maximum_svl, na.rm = TRUE)) %>%
  arrange(desc(avg_length)) %>%
  print()

# A tibble: 42 × 2
   family         avg_length
   <chr>               <dbl>
 1 Varanidae            472.
 2 Helodermatidae       441 
 3 Rhineuridae          380 
 4 Iguanidae            364.
 5 Cadeidae             270 
 6 Amphisbaenidae       267.
 7 Bipedidae            223 
 8 Blanidae             220.
 9 Lanthanotidae        220 
10 Corytophanidae       184.
# ℹ 32 more rows

summary_stats2 <- dfTraits %>%
  group_by(family) %>%
  summarize(
    avg_length = mean(maximum_svl, na.rm = TRUE),
    avg_lc = mean(largest_clutch, na.rm = TRUE),
    top_diet = names(sort(table(diet), decreasing = TRUE)[1]),
    .groups = "drop"
  ) %>%
  print()

# A tibble: 42 × 4
   family           avg_length avg_lc top_diet   
   <chr>                 <dbl>  <dbl> <chr>      
 1 Agamidae              110.    8.98 Carnivorous
 2 Amphisbaenidae        267.    4.22 Carnivorous
 3 Anguidae              151.   12.2  Carnivorous
 4 Anniellidae           156.    2.33 Carnivorous
 5 Bipedidae             223     4    Carnivorous
 6 Blanidae              220.    2    Carnivorous
 7 Cadeidae              270     2    Carnivorous
 8 Carphodactylidae      109.    2.04 Carnivorous
 9 Chamaeleonidae         94.8  19.5  Carnivorous
10 Cordylidae            104.    4.08 Carnivorous
# ℹ 32 more rows
…
